<svg width="20" height="20" viewBox="0 0 20 20" fill="none" xmlns="http://www.w3.org/2000/svg">
<path d="M10 4.375C8.10156 4.375 6.5625 5.91406 6.5625 7.8125C6.5625 9.71094 8.10156 11.25 10 11.25C11.8984 11.25 13.4375 9.71094 13.4375 7.8125C13.4375 5.91406 11.8984 4.375 10 4.375ZM10 9.375C9.13828 9.375 8.4375 8.67383 8.4375 7.8125C8.4375 6.94922 9.13672 6.25 10 6.25C10.8633 6.25 11.5625 6.95078 11.5625 7.8125C11.5625 8.67578 10.8633 9.375 10 9.375ZM10 0C4.47656 0 0 4.47656 0 10C0 15.5234 4.47656 20 10 20C15.5234 20 20 15.5234 20 10C20 4.47656 15.5234 0 10 0ZM10 18.125C8.17461 18.125 6.49375 17.5125 5.13672 16.4926C5.8125 15.1953 7.125 14.375 8.60156 14.375H11.402C12.8766 14.375 14.1875 15.1957 14.866 16.4926C13.5078 17.5117 11.8242 18.125 10 18.125ZM16.2578 15.1758C15.2031 13.5273 13.4062 12.5 11.3984 12.5H8.60156C6.59531 12.5 4.79883 13.5254 3.74219 15.175C2.57656 13.7695 1.875 11.9648 1.875 10C1.875 5.51953 5.51992 1.875 10 1.875C14.4801 1.875 18.125 5.51992 18.125 10C18.125 11.9648 17.4219 13.7695 16.2578 15.1758Z" fill="white"/>
</svg>
